{
    "name": "Elecciones",
    "alias": "elecciones",
    "description": "",
    "keywords": [],
    "active": 1,
    "order": 0,
    "providers": [
        "App\\Modules\\Elecciones\\Providers\\EleccionesServiceProvider"
    ],
    "aliases": {},
    "files": [
        "start.php"
    ],
    "requires": []
}
